<?xml version="1.0" encoding="utf-8"?>
<!-- Generator: Adobe Illustrator 16.0.0, SVG Export Plug-In . SVG Version: 6.00 Build 0)  -->
<!DOCTYPE svg PUBLIC "-//W3C//DTD SVG 1.1//EN" "http://www.w3.org/Graphics/SVG/1.1/DTD/svg11.dtd">
<svg version="1.1" id="Layer_1" xmlns="http://www.w3.org/2000/svg" xmlns:xlink="http://www.w3.org/1999/xlink" x="0px" y="0px"
	 width="250px" height="250px" viewBox="0 0 250 250" enable-background="new 0 0 250 250" xml:space="preserve">
<g>
	<path fill-rule="evenodd" clip-rule="evenodd" d="M64.54,242.442C43.08,224.858,22.139,207.698,0,189.558
		c16.676-15.254,32.112-31.261,49.522-44.722c14.958-11.566,33.314-12.873,51.989-9.444c9.961,1.83,20.15,2.62,30.273,3.269
		c8.082,0.519,16.23-0.048,24.34,0.155c11.193,0.282,18.267,7.118,18.158,17.206c-0.107,10.05-7.408,16.646-18.594,16.703
		c-10.252,0.052-20.503,0.049-30.754-0.004c-3.752-0.02-7.116,0.638-7.316,5.166c-0.228,5.141,3.539,5.592,7.439,5.591
		c11.747-0.007,23.496-0.175,35.237,0.058c7.642,0.151,13.485-2.709,18.425-8.457c12.938-15.064,26.128-29.913,39.135-44.921
		c5.039-5.814,11.143-8.697,18.75-6.785c12.157,3.054,17.66,17.84,9.595,27.506c-18.324,21.968-37.026,43.634-56.086,64.967
		c-7.562,8.466-18.039,11.922-29.42,11.95c-24.561,0.06-49.123,0.209-73.678-0.112c-6.019-0.078-10.688,1.13-14.412,6.017
		C70.291,236.732,67.43,239.346,64.54,242.442z"/>
	<g>
		<path fill-rule="evenodd" clip-rule="evenodd" d="M184.007,123.794c-12.338,0-23.866,0-35.992,0c0-2.363,0-4.641,0-6.916
			c-0.002-7.84-0.1-15.68,0.042-23.514c0.066-3.747-1.459-5.171-5.176-5.047c-5.63,0.191-11.279,0.202-16.91-0.003
			c-3.687-0.135-4.821,1.494-4.787,4.922c0.103,10.018,0.038,20.038,0.038,30.358c-12.192,0-24.054,0-36.41,0
			c0-17.693,0-35.355,0-53.485c-3.19,0-5.971,0.366-8.595-0.12c-1.936-0.36-4.6-1.442-5.217-2.922
			c-0.592-1.422,0.443-4.414,1.766-5.611C92.23,43.828,111.875,26.4,131.434,8.876c2.683-2.403,4.706-1.138,6.807,0.742
			c12.294,11.003,24.595,22,36.891,33c6.764,6.05,13.496,12.135,20.297,18.143c1.963,1.732,4.098,3.837,2.461,6.222
			c-1.132,1.65-3.881,2.546-6.072,3.018c-2.34,0.505-4.869,0.114-7.81,0.114C184.007,88.156,184.007,105.812,184.007,123.794z"/>
	</g>
</g>
</svg>
