<?xml version="1.0" encoding="utf-8"?>
<!-- Generator: Adobe Illustrator 16.0.0, SVG Export Plug-In . SVG Version: 6.00 Build 0)  -->
<!DOCTYPE svg PUBLIC "-//W3C//DTD SVG 1.1//EN" "http://www.w3.org/Graphics/SVG/1.1/DTD/svg11.dtd">
<svg version="1.1" id="Layer_1" xmlns="http://www.w3.org/2000/svg" xmlns:xlink="http://www.w3.org/1999/xlink" x="0px" y="0px"
	 width="250px" height="250px" viewBox="0 0 250 250" enable-background="new 0 0 250 250" xml:space="preserve">
<g>
	<g>
		<path fill="#010101" d="M107.475,182.861c0,36.316,29.441,65.756,65.757,65.756s65.755-29.439,65.755-65.756
			c0-36.317-29.439-65.756-65.755-65.756C136.914,117.105,107.475,146.546,107.475,182.861z M147.547,157.182
			c1.629-1.629,3.887-2.565,6.188-2.565c2.303,0,4.563,0.937,6.198,2.565c1.629,1.627,2.557,3.887,2.557,6.188
			c0,2.304-0.928,4.562-2.557,6.189c-1.636,1.629-3.887,2.566-6.198,2.566c-2.302,0-4.56-0.938-6.188-2.566
			c-1.629-1.628-2.566-3.886-2.566-6.189C144.98,161.068,145.918,158.809,147.547,157.182z M198.914,208.539
			c-1.63,1.628-3.888,2.565-6.189,2.565c-2.303,0-4.562-0.938-6.189-2.565c-1.637-1.628-2.565-3.878-2.565-6.188
			c0-2.303,0.929-4.561,2.565-6.189c1.628-1.629,3.887-2.565,6.189-2.565c2.302,0,4.56,0.937,6.189,2.565
			c1.628,1.629,2.563,3.887,2.563,6.189C201.477,204.661,200.542,206.911,198.914,208.539z M198.796,157.296
			c3.417,3.419,3.417,8.962,0,12.381l-38.748,38.747c-1.711,1.71-3.951,2.564-6.19,2.564c-2.242,0-4.482-0.854-6.191-2.564
			c-3.419-3.418-3.419-8.961,0-12.38l38.749-38.748C189.836,153.879,195.375,153.879,198.796,157.296z"/>
		<path fill="#010101" d="M89.968,182.861c0-45.91,37.352-83.263,83.263-83.263c1.521,0,3.034,0.042,4.535,0.125V8.753
			c0-4.835-3.92-8.753-8.753-8.753H19.767c-4.834,0-8.753,3.918-8.753,8.753v232.493c0,4.835,3.919,8.754,8.753,8.754h104.28
			C103.398,234.834,89.968,210.389,89.968,182.861z M60.515,46.499h61.999c4.835,0,8.754,3.92,8.754,8.753
			c0,4.835-3.919,8.754-8.754,8.754H60.515c-4.834,0-8.753-3.919-8.753-8.754C51.762,50.418,55.681,46.499,60.515,46.499z
			 M60.515,92.997h61.999c4.835,0,8.754,3.92,8.754,8.754c0,4.835-3.919,8.753-8.754,8.753H60.515c-4.834,0-8.753-3.918-8.753-8.753
			C51.761,96.917,55.681,92.997,60.515,92.997z M76.015,157.003h-15.5c-4.834,0-8.753-3.919-8.753-8.754
			c0-4.833,3.919-8.753,8.753-8.753h15.5c4.834,0,8.753,3.92,8.753,8.753C84.768,153.084,80.849,157.003,76.015,157.003z"/>
	</g>
</g>
</svg>
