<?xml version="1.0" encoding="utf-8"?>
<!-- Generator: Adobe Illustrator 16.0.0, SVG Export Plug-In . SVG Version: 6.00 Build 0)  -->
<!DOCTYPE svg PUBLIC "-//W3C//DTD SVG 1.1//EN" "http://www.w3.org/Graphics/SVG/1.1/DTD/svg11.dtd">
<svg version="1.1" id="Layer_1" xmlns="http://www.w3.org/2000/svg" xmlns:xlink="http://www.w3.org/1999/xlink" x="0px" y="0px"
	 width="250px" height="250px" viewBox="0 0 250 250" enable-background="new 0 0 250 250" xml:space="preserve">
<g>
	<path fill-rule="evenodd" clip-rule="evenodd" d="M16.271,200.262c-2.587-4.353-3.238-9.077-3.234-14.09
		C13.073,131.399,12.98,76.63,13.001,21.86C13.007,6.203,19.374-0.013,34.841,0c32.952,0.028,65.903,0.006,98.854,0.03
		c14.516,0.01,21.082,6.569,21.119,21.271c0.063,25.382-0.182,50.766,0.162,76.143c0.075,5.596-2.174,7.166-6.998,8.05
		c-43.162,7.918-48.486,43.506-46.157,62.911c-3.719,6.805-2.972,35.493-1.027,37.353c-1.8,1.854-4.147,1.233-6.271,1.235
		c-22.978,0.029-45.956-0.018-68.934-0.044c-2.683-1.703-5.365-3.403-8.047-5.104l-0.063-0.063
		C17.077,201.274,16.674,200.768,16.271,200.262z M83.169,69.029c12.903,0,25.808,0.132,38.708-0.046
		c8.459-0.117,11.527-3.394,11.627-11.919c0.094-8.007,0.104-16.019-0.036-24.026c-0.131-7.465-3.569-11.101-11.097-11.14
		c-25.806-0.133-51.613-0.122-77.419,0.009c-6.777,0.035-10.302,3.484-10.53,10.32c-0.289,8.666-0.257,17.355,0.014,26.023
		c0.238,7.646,3.612,10.699,11.358,10.75C58.251,69.08,70.71,69.021,83.169,69.029z M55.956,97.008
		c-0.126-6.097-5.143-10.712-11.329-10.423C38.745,86.86,34.271,91.67,34.46,97.515c0.181,5.59,5.332,10.346,10.998,10.156
		C51.273,107.476,56.072,102.602,55.956,97.008z M44.923,125.266c-5.868,0.16-10.481,4.869-10.472,10.691
		c0.01,5.883,5.315,10.76,11.362,10.443c5.777-0.303,10.372-5.328,10.07-11.015C55.573,129.54,50.773,125.107,44.923,125.266z
		 M55.925,174.412c-0.094-5.819-4.772-10.427-10.638-10.475c-5.868-0.047-10.763,4.624-10.822,10.328
		c-0.064,6.092,4.924,11.011,10.999,10.846C51.185,184.957,56.015,180.016,55.925,174.412z M84.119,86.599
		c-6-0.091-10.688,4.251-10.928,10.121c-0.245,6.012,4.659,10.964,10.831,10.935c5.718-0.027,10.535-4.803,10.617-10.528
		C94.718,91.477,89.933,86.688,84.119,86.599z M122.593,107.714c6.11-0.097,10.978-5.123,10.763-11.109
		c-0.207-5.715-5.028-10.086-11.005-9.978c-5.847,0.106-10.522,4.849-10.455,10.604
		C111.964,102.849,117.019,107.803,122.593,107.714z M84.604,164.458c-7.011-0.092-11.361,3.792-11.28,10.066
		c0.078,6.065,4.418,10.535,10.312,10.621c5.787,0.083,10.993-4.772,10.94-10.205C94.516,168.702,90.55,164.533,84.604,164.458z
		 M94.652,136.665c0.495-5.72-3.955-10.803-9.878-11.285c-6.174-0.503-10.768,3.372-11.351,9.574
		c-0.559,5.935,3.668,10.89,9.663,11.331C88.898,146.714,94.163,142.334,94.652,136.665z"/>
	<path fill-rule="evenodd" clip-rule="evenodd" d="M237.002,139.095c0-10.572-27.063-19.143-60.443-19.143
		c-33.383,0-60.443,8.571-60.443,19.143v18.788h0.028c-0.007,0.118-0.028,0.235-0.028,0.355c0,10.571,27.06,19.143,60.443,19.143
		c33.381,0,60.443-8.571,60.443-19.143c0-0.12-0.022-0.237-0.029-0.355h0.029V139.095z"/>
	<path fill-rule="evenodd" clip-rule="evenodd" d="M176.559,191.089c-31.827,0-57.89-7.793-60.25-17.681
		c-0.116,0.481-0.193,0.969-0.193,1.461v18.789h0.028c-0.007,0.117-0.028,0.235-0.028,0.355c0,10.57,27.06,19.143,60.443,19.143
		c33.381,0,60.443-8.572,60.443-19.143c0-0.12-0.022-0.238-0.029-0.355h0.029v-18.789c0-0.492-0.079-0.979-0.193-1.461
		C234.447,183.296,208.384,191.089,176.559,191.089z"/>
	<path fill-rule="evenodd" clip-rule="evenodd" d="M176.559,227.934c-31.827,0-57.89-7.793-60.25-17.682
		c-0.116,0.483-0.193,0.97-0.193,1.462v18.789h0.028c-0.007,0.118-0.028,0.236-0.028,0.354c0,10.573,27.06,19.144,60.443,19.144
		c33.381,0,60.443-8.57,60.443-19.144c0-0.117-0.022-0.235-0.029-0.354h0.029v-18.789c0-0.492-0.079-0.979-0.193-1.462
		C234.447,220.141,208.384,227.934,176.559,227.934z"/>
</g>
</svg>
