<?xml version="1.0" encoding="utf-8"?>
<!-- Generator: Adobe Illustrator 16.0.0, SVG Export Plug-In . SVG Version: 6.00 Build 0)  -->
<!DOCTYPE svg PUBLIC "-//W3C//DTD SVG 1.1//EN" "http://www.w3.org/Graphics/SVG/1.1/DTD/svg11.dtd">
<svg version="1.1" id="Layer_1" xmlns="http://www.w3.org/2000/svg" xmlns:xlink="http://www.w3.org/1999/xlink" x="0px" y="0px"
	 width="250px" height="250px" viewBox="0 0 250 250" enable-background="new 0 0 250 250" xml:space="preserve">
<g>
	<g id="XMLID_232_">
		<g id="XMLID_233_">
			<circle id="XMLID_235_" fill="#010101" cx="114.583" cy="83.341" r="31.25"/>
		</g>
		<g id="XMLID_236_">
			<path id="XMLID_237_" fill="#010101" d="M114.583,114.591c-26.846,0-48.61,21.762-48.61,48.612h97.221
				C163.193,136.354,141.429,114.591,114.583,114.591z"/>
		</g>
		<g id="XMLID_238_">
			<path id="XMLID_239_" fill="#010101" d="M246.948,232.209l-44.343-44.346c16.574-19.877,26.561-45.43,26.561-73.272
				c0-63.182-51.4-114.582-114.583-114.582C51.402,0.009,0,51.41,0,114.591c0,63.182,51.402,114.584,114.583,114.584
				c27.854,0,53.414-9.994,73.293-26.578l44.342,44.342c2.035,2.035,4.701,3.051,7.366,3.051s5.331-1.016,7.364-3.051
				C251.018,242.871,251.018,236.275,246.948,232.209z M20.833,114.591c0-51.693,42.057-93.75,93.75-93.75
				c51.694,0,93.75,42.056,93.75,93.75c0,51.694-42.057,93.75-93.75,93.75C62.89,208.342,20.833,166.285,20.833,114.591z"/>
		</g>
	</g>
</g>
</svg>
