<?xml version="1.0" encoding="utf-8"?>
<!-- Generator: Adobe Illustrator 16.0.0, SVG Export Plug-In . SVG Version: 6.00 Build 0)  -->
<!DOCTYPE svg PUBLIC "-//W3C//DTD SVG 1.1//EN" "http://www.w3.org/Graphics/SVG/1.1/DTD/svg11.dtd">
<svg version="1.1" id="Layer_1" xmlns="http://www.w3.org/2000/svg" xmlns:xlink="http://www.w3.org/1999/xlink" x="0px" y="0px"
	 width="250px" height="250px" viewBox="0 0 250 250" enable-background="new 0 0 250 250" xml:space="preserve">
<g>
	<path fill-rule="evenodd" clip-rule="evenodd" d="M176.041,154.984c-0.137,48.585-39.671,88.173-87.947,88.066
		c-49.05-0.105-88.298-39.721-88.093-88.917C0.2,106.27,40.179,66.676,88.077,66.903
		C136.648,67.133,176.176,106.716,176.041,154.984z M82.549,150.216c-2.957,0-5.471-0.002-7.982,0
		c-14.317,0.002-28.633,0.02-42.951-0.002c-2.822-0.003-5.073,0.819-5.722,3.852c-0.716,3.351,1.527,5.616,5.552,5.622
		c18.126,0.026,36.254,0.013,54.38,0.019c4.641,0.001,6.21-1.543,6.217-6.193c0.014-10.738,0.019-21.476,0.018-32.214
		c0-7.157,0.008-14.315-0.042-21.475c-0.019-2.652-0.949-5.125-3.871-5.236c-1.632-0.062-3.613,1.063-4.876,2.249
		c-0.777,0.731-0.663,2.586-0.667,3.937c-0.05,15.125-0.044,30.25-0.054,45.374C82.549,147.379,82.549,148.61,82.549,150.216z"/>
	<path fill-rule="evenodd" clip-rule="evenodd" d="M182.561,78.223c-20.471,0.003-37.119-2.254-52.512-9.894
		c-5.586-2.772-11-6.473-15.464-10.81c-9.064-8.808-8.856-20.263-0.271-29.62c5.177-5.645,11.6-9.624,18.656-12.265
		c31.348-11.733,62.688-11.731,93.809,0.932c6.461,2.63,12.213,6.5,16.941,11.744c7.906,8.772,8.166,19.113,0.551,28.162
		c-6.057,7.202-14.158,11.37-22.746,14.637C207.877,76.301,193.684,78.407,182.561,78.223z"/>
	<path fill-rule="evenodd" clip-rule="evenodd" d="M248.676,63.258c2.123,5.28,1.689,10.466-1.271,14.697
		c-3.109,4.444-6.885,8.786-11.271,11.904c-12.029,8.55-25.975,12.349-40.49,13.741c-8.131,0.781-16.359,0.56-24.541,0.866
		c-2.029,0.077-3.236-0.675-4.574-2.286c-5.002-6.018-10.275-11.808-15.488-17.647c-0.591-0.662-1.441-1.092-1.969-1.907
		C184.689,88.505,218.502,86.496,248.676,63.258z"/>
	<path fill-rule="evenodd" clip-rule="evenodd" d="M172.732,111.75c27.35-0.287,53.926-2.873,75.574-22.627
		c2.258,4.363,1.85,8.565,0.322,12.765c-1.916,5.272-5.525,9.272-9.879,12.645c-10.1,7.829-21.859,11.822-34.205,14.036
		c-7.234,1.297-14.643,1.603-21.971,2.38c-2.135,0.226-3.223-0.462-3.93-2.728C176.943,122.768,174.811,117.449,172.732,111.75z"/>
	<path fill-rule="evenodd" clip-rule="evenodd" d="M248.473,115.366c2.594,6.802,1.207,12.511-2.359,17.833
		c-3.891,5.806-9.379,9.822-15.48,12.987c-14.404,7.475-29.908,10.489-45.986,11.056c-0.543,0.02-1.096-0.168-1.791-0.282
		c-0.463-6.154-0.92-12.216-1.416-18.809C205.529,136.66,229.295,133.392,248.473,115.366z"/>
</g>
</svg>
