<?xml version="1.0" encoding="utf-8"?>
<!-- Generator: Adobe Illustrator 16.0.0, SVG Export Plug-In . SVG Version: 6.00 Build 0)  -->
<!DOCTYPE svg PUBLIC "-//W3C//DTD SVG 1.1//EN" "http://www.w3.org/Graphics/SVG/1.1/DTD/svg11.dtd">
<svg version="1.1" id="Layer_1" xmlns="http://www.w3.org/2000/svg" xmlns:xlink="http://www.w3.org/1999/xlink" x="0px" y="0px"
	 width="250px" height="250px" viewBox="0 0 250 250" enable-background="new 0 0 250 250" xml:space="preserve">
<g>
	<path fill-rule="evenodd" clip-rule="evenodd" d="M125.991,0c8.452,5.271,16.994,10.396,25.333,15.841
		c13.269,8.67,26.382,17.583,39.604,26.324c3.447,2.282,6.409,4.789,6.642,9.296c0.315,6.119-4.144,10.68-10.611,10.822
		c-2.683,0.057-5.371,0.073-8.054-0.012c-1.518-0.049-2.245,0.409-2.237,2.04c0.034,9.191,0.031,18.382-0.003,27.575
		c-0.005,1.577,0.608,2.106,2.191,2.083c5.448-0.07,10.901,0.037,16.35-0.045c1.736-0.025,2.481,0.392,2.436,2.302
		c-0.119,5.203-0.122,10.413-0.02,15.616c0.037,1.876-0.659,2.336-2.422,2.333c-25.378-0.034-50.76-0.003-76.14-0.003
		c-21.232,0-42.464-0.051-63.696,0.026c-2.348,0.008-3.072-0.62-2.979-2.987c0.185-4.712,0.057-9.435,0.054-14.152
		c0-3.104,0-3.101,3.226-3.104c5.124-0.003,10.25-0.065,15.375,0.02c1.717,0.028,2.299-0.631,2.293-2.265
		c-0.034-9.111-0.031-18.223-0.008-27.331c0.003-1.534-0.571-2.126-2.174-2.126c-3.487-0.005-7,0.015-10.45-0.403
		c-4.473-0.54-7.153-3.507-8.063-7.729c-0.898-4.16,0.54-7.787,4.09-10.239c6.485-4.481,13.064-8.836,19.626-13.206
		c14.073-9.379,28.146-18.757,42.265-28.064c1.66-1.094,3.606-1.75,5.419-2.611C124.69,0,125.341,0,125.991,0z M93.71,62.288
		c0,10.788,0,21.076,0,31.546c1.018,0.045,1.887,0.116,2.757,0.119c5.201,0.006,10.407-0.105,15.602,0.037
		c2.183,0.063,2.956-0.478,2.907-2.805c-0.15-7.313-0.077-14.628-0.04-21.943c0.04-6.954,0.068-6.954-6.988-6.954
		C103.259,62.288,98.57,62.288,93.71,62.288z M156.323,62.294c-6.32,0-12.479,0.071-18.635-0.042
		c-1.995-0.037-2.677,0.531-2.646,2.589c0.107,7.479,0.022,14.965,0.057,22.448c0.012,2.092-0.605,5.078,0.488,6.045
		c1.279,1.125,4.112,0.554,6.272,0.602c2.848,0.063,5.695,0.009,8.54,0.006c1.93-0.003,3.856,0,5.923,0
		C156.323,83.353,156.323,73.054,156.323,62.294z"/>
	<path fill-rule="evenodd" clip-rule="evenodd" d="M196.792,250c-1.171-0.282-2.336-0.574-3.51-0.848
		c-9.978-2.313-16.588-11.484-15.815-21.937c0.696-9.435,8.936-17.717,18.413-18.512c10.379-0.87,19.66,5.763,22.002,15.718
		c2.748,11.692-4.974,23.128-16.833,24.964c-0.622,0.097-1.21,0.406-1.815,0.614C198.418,250,197.604,250,196.792,250z"/>
	<path fill-rule="evenodd" clip-rule="evenodd" d="M50.797,250c-1.085-0.271-2.171-0.543-3.257-0.811
		c-10.194-2.518-16.384-11.095-15.958-20.649c0.492-10.927,8.821-19.302,18.865-19.845c10.819-0.586,19.694,6.192,21.729,16.588
		c2.254,11.516-5.411,22.301-17.114,24.114c-0.625,0.097-1.219,0.397-1.825,0.603C52.423,250,51.61,250,50.797,250z"/>
	<path fill-rule="evenodd" clip-rule="evenodd" d="M123.55,250c-1.549-0.418-3.115-0.771-4.638-1.263
		c-9.81-3.177-16.077-12.416-14.011-23.505c1.978-10.617,11.754-17.598,22.306-16.521c9.717,0.992,17.694,9.58,18.234,18.919
		c0.73,12.649-8.884,20.755-17.168,21.743c-0.614,0.074-1.196,0.412-1.794,0.626C125.502,250,124.525,250,123.55,250z"/>
	<path fill-rule="evenodd" clip-rule="evenodd" d="M187.721,156.202c-1.083-0.06-1.876-0.14-2.666-0.14
		c-15.701-0.008-31.406,0.034-47.107-0.057c-2.229-0.011-2.922,0.611-2.894,2.862c0.111,8.704-0.011,17.409,0.071,26.114
		c0.018,1.83-0.52,2.39-2.351,2.35c-5.124-0.113-10.253-0.122-15.374,0.006c-1.924,0.049-2.524-0.488-2.504-2.452
		c0.091-8.867,0.006-17.736,0.034-26.604c0.003-1.409-0.159-2.273-1.938-2.268c-16.515,0.057-33.032,0.043-49.549,0.057
		c-0.236,0-0.472,0.08-1.137,0.202c0,0.869,0,1.802,0,2.733c0,8.543-0.045,17.089,0.037,25.629c0.017,1.924-0.395,2.768-2.546,2.705
		c-5.039-0.15-10.089-0.145-15.13-0.003c-2.109,0.06-2.609-0.728-2.598-2.677c0.071-13.178,0.006-26.358,0.074-39.536
		c0.028-5.057,4.306-9.236,9.427-9.254c16.108-0.057,32.216-0.048,48.324-0.051c28.39-0.006,56.784,0,85.178,0.006
		c4.394,0,8.787-0.077,13.178,0.051c5.7,0.162,9.628,4.157,9.648,9.796c0.051,13.016-0.009,26.032,0.067,39.051
		c0.012,2.029-0.645,2.663-2.662,2.614c-5.042-0.128-10.092-0.128-15.131-0.006c-1.961,0.052-2.518-0.591-2.498-2.509
		c0.091-8.543,0.046-17.086,0.046-25.629C187.721,158.243,187.721,157.288,187.721,156.202z"/>
</g>
</svg>
