<?xml version="1.0" encoding="utf-8"?>
<!-- Generator: Adobe Illustrator 16.0.0, SVG Export Plug-In . SVG Version: 6.00 Build 0)  -->
<!DOCTYPE svg PUBLIC "-//W3C//DTD SVG 1.1//EN" "http://www.w3.org/Graphics/SVG/1.1/DTD/svg11.dtd">
<svg version="1.1" id="Layer_1" xmlns="http://www.w3.org/2000/svg" xmlns:xlink="http://www.w3.org/1999/xlink" x="0px" y="0px"
	 width="250px" height="250px" viewBox="0 0 250 250" enable-background="new 0 0 250 250" xml:space="preserve">
<g>
	<path fill-rule="evenodd" clip-rule="evenodd" d="M142.222,178.237c-0.119-29.796,23.97-54.03,53.767-54.094
		c29.624-0.062,53.997,24.279,54.012,53.941c0.016,29.83-24.007,53.956-53.836,54.069
		C166.511,232.267,142.343,208.108,142.222,178.237z M210.091,161.743c4.325-8.854,4.023-9.834-5.322-11.821
		c-3.373-0.717-3.842-2.514-3.906-5.304c-0.085-3.782-3.077-3.85-5.473-3.244c-1.549,0.393-3.891,2.375-3.831,3.539
		c0.2,3.872-1.627,5.349-4.854,6.636c-5.954,2.373-8.956,7.194-9.421,13.477c-0.446,6.045,2.449,10.547,7.498,13.478
		c3.736,2.167,7.831,3.709,11.724,5.615c3.004,1.473,6.656,3.521,4.996,7.118c-1.033,2.242-4.962,4.393-7.586,4.385
		c-4.711-0.013-9.417-1.681-14.211-2.675c-4.635,8.469-3.728,10.699,5.439,12.784c0.353,0.08,0.71,0.155,1.069,0.193
		c3.145,0.324,4.974,1.727,4.659,5.225c-0.354,3.965,2.308,4.164,5.301,4.247c3.487,0.096,3.974-1.729,4.346-4.708
		c0.255-2.049,1.673-4.93,3.344-5.652c7.078-3.057,11.267-8.057,11.367-15.701c0.102-7.489-4.256-12.443-10.799-15.576
		c-3.424-1.64-7.139-2.8-10.275-4.857c-1.639-1.074-3.48-3.922-3.096-5.422c0.395-1.544,3.385-3.395,5.241-3.398
		C200.721,160.073,205.14,161.076,210.091,161.743z"/>
	<path fill-rule="evenodd" clip-rule="evenodd" d="M106.62,85.812c-6.265,0-11.682,0.104-17.092-0.03
		c-5.292-0.132-6.946-2.91-4.201-7.36c11.782-19.107,23.646-38.164,35.592-57.169c2.936-4.669,5.979-4.51,8.989,0.294
		c11.627,18.563,23.223,37.146,34.761,55.765c3.484,5.622,1.897,8.417-4.666,8.493c-5.026,0.058-10.052,0.012-15.779,0.012
		c0,9.817,0,19,0,28.183c-0.001,1.449-0.122,2.909,0.015,4.346c0.818,8.7-1.348,15.994-6.453,23.621
		c-15.846,23.67-13.923,54.946,3.316,77.873c1.251,1.664,2.812,5.022,2.139,5.81c-1.511,1.77-4.286,3.235-6.632,3.37
		c-7.224,0.418-14.487,0.185-21.734,0.144c-6.536-0.036-8.244-1.771-8.246-8.447c-0.016-42.578-0.008-85.155-0.008-127.732
		C106.62,90.844,106.62,88.705,106.62,85.812z"/>
	<path fill-rule="evenodd" clip-rule="evenodd" d="M53.278,172.407c0-16.131-0.025-32.263,0.013-48.394
		c0.016-6.228,1.456-7.649,7.709-7.698c7.431-0.058,14.863-0.062,22.293,0.002c5.726,0.049,7.635,1.792,7.645,7.352
		c0.053,32.625,0.054,65.25-0.004,97.875c-0.011,5.546-2.037,7.506-7.579,7.589c-7.25,0.108-14.501,0.074-21.75,0.016
		c-6.667-0.053-8.339-1.769-8.341-8.348c-0.006-16.132-0.002-32.263-0.002-48.395C53.267,172.407,53.272,172.407,53.278,172.407z"/>
	<path fill-rule="evenodd" clip-rule="evenodd" d="M0.013,188.438c0-11.056-0.037-22.11,0.016-33.166
		c0.027-5.813,1.587-7.354,7.458-7.408c7.43-0.067,14.861-0.057,22.291-0.004c6.102,0.045,7.893,1.715,7.907,7.645
		c0.05,21.929,0.054,43.859-0.005,65.789c-0.015,5.845-1.987,7.771-7.868,7.846c-7.43,0.096-14.862,0.092-22.292,0
		c-5.635-0.067-7.46-1.916-7.49-7.535C-0.027,210.549,0.014,199.494,0.013,188.438z"/>
</g>
</svg>
