<?xml version="1.0" encoding="utf-8"?>
<!-- Generator: Adobe Illustrator 16.0.0, SVG Export Plug-In . SVG Version: 6.00 Build 0)  -->
<!DOCTYPE svg PUBLIC "-//W3C//DTD SVG 1.1//EN" "http://www.w3.org/Graphics/SVG/1.1/DTD/svg11.dtd">
<svg version="1.1" id="SIAFI" xmlns="http://www.w3.org/2000/svg" xmlns:xlink="http://www.w3.org/1999/xlink" x="0px" y="0px"
	 width="792px" height="612px" viewBox="0 0 792 612" enable-background="new 0 0 792 612" xml:space="preserve">
<g>
	<g id="Layer_1_1_" display="none">
		<circle display="inline" cx="621.25" cy="478.123" r="66.814"/>
		<g display="inline">
			<circle fill="#FFFFFF" cx="615.359" cy="499.942" r="13.193"/>
			<rect x="548.885" y="493.346" fill="#FFFFFF" width="66.475" height="13.194"/>
		</g>
		<g display="inline">
			<circle fill="#FFFFFF" cx="622.359" cy="459.138" r="13.193"/>
			<rect x="622.359" y="452.54" fill="#FFFFFF" width="66.474" height="13.194"/>
		</g>
		<rect x="510" y="410" display="inline" width="198.333" height="136.245"/>
	</g>
</g>
<g id="Layer_2">
	<path fill="#FFFFFF" d="M678.793,252.638H449.947c-9.836,16.965-28.152,28.416-49.168,28.416
		c-31.382,0-56.833-25.446-56.833-56.829c0-31.391,25.451-56.837,56.833-56.837c21.025,0,39.332,11.447,49.168,28.421h211.967
		C618.652,91.538,515.908,18.189,396,18.189c-158.956,0-287.815,128.86-287.815,287.815c0,18.24,1.775,36.059,5.022,53.367h228.846
		c9.835-16.966,28.147-28.412,49.167-28.412c31.383,0,56.834,25.442,56.834,56.823c0,31.392-25.451,56.838-56.834,56.838
		c-21.024,0-39.337-11.447-49.167-28.416H130.085C173.347,520.463,276.096,593.811,396,593.811
		c158.955,0,287.814-128.859,287.814-287.811C683.814,287.76,682.041,269.94,678.793,252.638z"/>
</g>
</svg>
